{
  "EU": "European Commission",
  "AT": "Austria",
  "BE": "Belgium",
  "BG": "Bulgaria",
  "HR": "Croatia",
  "CY": "Cyprus",
  "CZ": "Czech Republic",
  "DK": "Denmark",
  "EE": "Estonia",
  "FI": "Finland",
  "FR": "France",
  "DE": "Germany",
  "GR": "Greece",
  "HU": "Hungary",
  "IS": "Iceland",
  "IE": "Ireland",
  "IS": "Iceland",
  "IT": "Italy",
  "LV": "Latvia",
  "LT": "Lithuania",
  "LU": "Luxembourg",
  "MT": "Malta",
  "NL": "The Netherlands",
  "NO": "Norway",
  "PL": "Poland",
  "PT": "Portugal",
  "RO": "Romania",
  "SK": "Slovakia",
  "SI": "Slovenia",
  "ES": "Spain",
  "SE": "Sweden",
  "UK": "United Kingdom"
}
